{
  "meta": {
    "generator": "bomber",
    "url": "https://github.com/devops-kung-fu/bomber",
    "version": "0.4.4",
    "provider": "osv",
    "date": "2023-07-04T10:41:37.26444625Z"
  },
  "files": [
    {
      "name": "sbom.json",
      "sha256": "987190329f4fdb70b641cd9a498d7a33e813532bdc401f3530be0a1a298ba691"
    }
  ],
  "summary": {
    "Unspecified": 0,
    "Low": 0,
    "Moderate": 0,
    "High": 0,
    "Critical": 0
  },
  "repo_name": ""
}
