DownloadUrl,Size,MD5,LastUpdated,ArchivedRange,Notes
https://a4lg.com/downloads/vxshare/downloads/2022-06-13/vxshare-hashes-000-v5.tar.xz,597.3MiB,ca7f9dea58f772ee7142a6a1c9f376bc,2022-06-13,Others,Latest archive including hashes from VirusShare_exe_large_20220610.zip
https://a4lg.com/downloads/vxshare/downloads/2015-07-24/vxshare-hashes-001-v5.tar.xz,408.5MiB,4108a997301f370df115c6ca3d901d74,2015-07-24 (FINAL),00000 - 00004,-
https://a4lg.com/downloads/vxshare/downloads/2015-07-24/vxshare-hashes-002-v5.tar.xz,406.3MiB,9ad3fd8775a42530535968ca5fee1929,2015-07-24 (FINAL),00005 - 00009,-
https://a4lg.com/downloads/vxshare/downloads/2015-07-24/vxshare-hashes-003-v5.tar.xz,404.2MiB,03668adea3b666b3b9e4189372a48200,2015-07-24 (FINAL),00010 - 00014,-
https://a4lg.com/downloads/vxshare/downloads/2015-07-24/vxshare-hashes-004-v5.tar.xz,403.8MiB,350bb2ce9d26c351d22ef99a18e3466b,2015-07-24 (FINAL),00015 - 00019,-
https://a4lg.com/downloads/vxshare/downloads/2015-07-24/vxshare-hashes-005-v5.tar.xz,408.9MiB,bf1abb7d23599ceb0fcea293613505bb,2015-07-24 (FINAL),00020 - 00024,-
https://a4lg.com/downloads/vxshare/downloads/2015-07-24/vxshare-hashes-006-v5.tar.xz,407.4MiB,71a24a94e3b2a0ef3aac6a3326d9eb17,2015-07-24 (FINAL),00025 - 00029,-
https://a4lg.com/downloads/vxshare/downloads/2015-07-24/vxshare-hashes-007-v5.tar.xz,409.4MiB,c51b1ab794fb82a3f03f16ca951dc804,2015-07-24 (FINAL),00030 - 00034,-
https://a4lg.com/downloads/vxshare/downloads/2015-07-24/vxshare-hashes-008-v5.tar.xz,410.8MiB,536dad1b25bf5160b53ae5cc1cb20a2d,2015-07-24 (FINAL),00035 - 00039,-
https://a4lg.com/downloads/vxshare/downloads/2015-07-24/vxshare-hashes-009-v5.tar.xz,411.4MiB,11afce1490d503b6fedc04b42d32ba65,2015-07-24 (FINAL),00040 - 00044,-
https://a4lg.com/downloads/vxshare/downloads/2015-07-24/vxshare-hashes-010-v5.tar.xz,409.5MiB,ed34ab752bff5565658df083c820c944,2015-07-24 (FINAL),00045 - 00049,-
https://a4lg.com/downloads/vxshare/downloads/2015-07-24/vxshare-hashes-011-v5.tar.xz,411.4MiB,142f5eef13797baa99cdbb4d7fd50a33,2015-07-24 (FINAL),00050 - 00054,-
https://a4lg.com/downloads/vxshare/downloads/2015-07-24/vxshare-hashes-012-v5.tar.xz,411.9MiB,523f37ff591095316b089fa1bf9c61fb,2015-07-24 (FINAL),00055 - 00059,-
https://a4lg.com/downloads/vxshare/downloads/2015-07-24/vxshare-hashes-013-v5.tar.xz,412.6MiB,c5a558fc90b5c798739a79c8a2b95c02,2015-07-24 (FINAL),00060 - 00064,-
https://a4lg.com/downloads/vxshare/downloads/2015-07-24/vxshare-hashes-014-v5.tar.xz,410.3MiB,57c2cd8103f4c0633f9b4de401683ccd,2015-07-24 (FINAL),00065 - 00069,-
https://a4lg.com/downloads/vxshare/downloads/2015-07-24/vxshare-hashes-015-v5.tar.xz,412.0MiB,988e155c7b745eb82027e7e553c5af95,2015-07-24 (FINAL),00070 - 00074,-
https://a4lg.com/downloads/vxshare/downloads/2015-07-24/vxshare-hashes-016-v5.tar.xz,410.5MiB,317b3b016f115055f0712c3520e19d32,2015-07-24 (FINAL),00075 - 00079,-
https://a4lg.com/downloads/vxshare/downloads/2015-07-24/vxshare-hashes-017-v5.tar.xz,410.8MiB,adea5cbbbd2804467849ca4dd279de88,2015-07-24 (FINAL),00080 - 00084,-
https://a4lg.com/downloads/vxshare/downloads/2015-07-24/vxshare-hashes-018-v5.tar.xz,405.6MiB,523495b884d7ba597f0f8ae47dbe5c4d,2015-07-24 (FINAL),00085 - 00089,-
https://a4lg.com/downloads/vxshare/downloads/2015-07-24/vxshare-hashes-019-v5.tar.xz,410.5MiB,9100bb7766ce497f47d5f52bb0925ea0,2015-07-24 (FINAL),00090 - 00094,-
https://a4lg.com/downloads/vxshare/downloads/2015-07-24/vxshare-hashes-020-v5.tar.xz,409.5MiB,88846ad7759706f9fa9f2da1462a18f0,2015-07-24 (FINAL),00095 - 00099,-
https://a4lg.com/downloads/vxshare/downloads/2015-07-24/vxshare-hashes-021-v5.tar.xz,408.5MiB,429664f631f7d3b9c32765568019cc7f,2015-07-24 (FINAL),00100 - 00104,-
https://a4lg.com/downloads/vxshare/downloads/2015-07-24/vxshare-hashes-022-v5.tar.xz,409.4MiB,712a90c8892441a108de9a4d9df9458b,2015-07-24 (FINAL),00105 - 00109,-
https://a4lg.com/downloads/vxshare/downloads/2015-07-24/vxshare-hashes-023-v5.tar.xz,404.9MiB,c8b29629d0f0309db35fcde5e929728e,2015-07-24 (FINAL),00110 - 00114,-
https://a4lg.com/downloads/vxshare/downloads/2015-07-24/vxshare-hashes-024-v5.tar.xz,405.8MiB,979af9a523d2005f5a3d368023c18f0f,2015-07-24 (FINAL),00115 - 00119,-
https://a4lg.com/downloads/vxshare/downloads/2015-07-24/vxshare-hashes-025-v5.tar.xz,407.5MiB,d2daa3e05d1a4adecf30888f2d7cd317,2015-07-24 (FINAL),00120 - 00124,-
https://a4lg.com/downloads/vxshare/downloads/2015-07-24/vxshare-hashes-026-v5.tar.xz,404.5MiB,70876e7c00aac95c97802c4b8642fedf,2015-07-24 (FINAL),00125 - 00129,-
https://a4lg.com/downloads/vxshare/downloads/2015-07-24/vxshare-hashes-027-v5.tar.xz,403.0MiB,3f5cf65cecfac33e5e55a20b98854ee0,2015-07-24 (FINAL),00130 - 00134,-
https://a4lg.com/downloads/vxshare/downloads/2015-07-24/vxshare-hashes-028-v5.tar.xz,398.2MiB,ae28e92d563a4ba49d50308ce2bb9ff4,2015-07-24 (FINAL),00135 - 00139,-
https://a4lg.com/downloads/vxshare/downloads/2015-07-24/vxshare-hashes-029-v5.tar.xz,401.6MiB,104eef5ae868b61dad6fbf03f16c7351,2015-07-24 (FINAL),00140 - 00144,-
https://a4lg.com/downloads/vxshare/downloads/2015-07-24/vxshare-hashes-030-v5.tar.xz,364.5MiB,304f485989eff3cb3b023aad208af954,2015-07-24 (FINAL),00145 - 00149,-
https://a4lg.com/downloads/vxshare/downloads/2015-07-24/vxshare-hashes-031-v5.tar.xz,407.6MiB,281b693f79dcae8bda35f52d8d96d4e9,2015-07-24 (FINAL),00150 - 00159,-
https://a4lg.com/downloads/vxshare/downloads/2015-09-20/vxshare-hashes-032-v5.tar.xz,407.8MiB,a4e803dec6bb4fb269ea1ff92df40c67,2015-09-20 (FINAL),00160 - 00169,-
https://a4lg.com/downloads/vxshare/downloads/2015-10-08/vxshare-hashes-033-v5.tar.xz,408.5MiB,0989143e37f327eb98df81c051f92d20,2015-10-08 (FINAL),00170 - 00179,-
https://a4lg.com/downloads/vxshare/downloads/2015-10-28/vxshare-hashes-034-v5.tar.xz,408.1MiB,e9e2a54fef59ec63f2953b131efc98a9,2015-10-28 (FINAL),00180 - 00189,-
https://a4lg.com/downloads/vxshare/downloads/2015-11-30/vxshare-hashes-035-v5.tar.xz,405.4MiB,6f7997014317edbfb348a9f22326a916,2015-11-30 (FINAL),00190 - 00199,-
https://a4lg.com/downloads/vxshare/downloads/2015-12-28/vxshare-hashes-036-v5.tar.xz,404.9MiB,3e91d93e49a3c3ac0eba6990927d466b,2015-12-28 (FINAL),00200 - 00209,-
https://a4lg.com/downloads/vxshare/downloads/2016-02-13/vxshare-hashes-037-v5.tar.xz,400.9MiB,24d6bce677204f0168e12d38dfbc7ba9,2016-02-13 (FINAL),00210 - 00219,-
https://a4lg.com/downloads/vxshare/downloads/2016-05-02/vxshare-hashes-038-v5.tar.xz,398.5MiB,8fc0d783001d695e88deeb4f8afa0207,2016-05-02 (FINAL),00220 - 00229,-
https://a4lg.com/downloads/vxshare/downloads/2016-05-25/vxshare-hashes-039-v5.tar.xz,402.3MiB,3f87342962345cb2c4078e0f4b1d4bdc,2016-05-25 (FINAL),00230 - 00239,-
https://a4lg.com/downloads/vxshare/downloads/2016-06-07/vxshare-hashes-040-v5.tar.xz,405.7MiB,b58a7743b85be36f2bf2d6e452f5d88a,2016-06-07 (FINAL),00240 - 00249,-
https://a4lg.com/downloads/vxshare/downloads/2016-07-09/vxshare-hashes-041-v5.tar.xz,407.7MiB,e5e1bd87956725f15da966f1d4b0ef86,2016-07-09 (FINAL),00250 - 00259,-
https://a4lg.com/downloads/vxshare/downloads/2018-11-20/vxshare-hashes-042-v5.tar.xz,400.0MiB,f72fd03b8bf07994f1130c990989fec7,2018-11-20 (FINAL),00260 - 00269,-
https://a4lg.com/downloads/vxshare/downloads/2017-03-01/vxshare-hashes-043-v5.tar.xz,395.2MiB,76de0d35fc1939d884a7e46493aa83ab,2017-03-01 (FINAL),00270 - 00279,-
https://a4lg.com/downloads/vxshare/downloads/2017-05-09/vxshare-hashes-044-v5.tar.xz,397.0MiB,f2cc0be5bcfd7d4e41d50d838063cba8,2017-05-09 (FINAL),00280 - 00289,-
https://a4lg.com/downloads/vxshare/downloads/2017-10-20/vxshare-hashes-045-v5.tar.xz,395.9MiB,ee597575417d608197de24672ebe2240,2017-10-20 (FINAL),00290 - 00299,-
https://a4lg.com/downloads/vxshare/downloads/2018-03-02/vxshare-hashes-046-v5.tar.xz,393.4MiB,6b33eea63a4e7feef71d525e786796c1,2018-03-02 (FINAL),00300 - 00309,-
https://a4lg.com/downloads/vxshare/downloads/2018-07-04/vxshare-hashes-047-v5.tar.xz,394.3MiB,1f1f5efeee5a049d93f86b5bb30a54f1,2018-07-04 (FINAL),00310 - 00319,-
https://a4lg.com/downloads/vxshare/downloads/2018-09-08/vxshare-hashes-048-v5.tar.xz,391.6MiB,8df97557d301d51f70981ecb3c7a678a,2018-09-08 (FINAL),00320 - 00329,-
https://a4lg.com/downloads/vxshare/downloads/2018-11-09/vxshare-hashes-049-v5.tar.xz,393.7MiB,5a6251efb6dd94856c5d53c869456e26,2018-11-09 (FINAL),00330 - 00339,-
https://a4lg.com/downloads/vxshare/downloads/2019-02-01/vxshare-hashes-050-v5.tar.xz,395.7MiB,15f9077b299c97f84945aa57ed2bf4bd,2019-02-01 (FINAL),00340 - 00349,-
https://a4lg.com/downloads/vxshare/downloads/2019-05-19/vxshare-hashes-051-v5.tar.xz,396.5MiB,e365031294db5da25685226dc64cb347,2019-05-19 (FINAL),00350 - 00359,-
https://a4lg.com/downloads/vxshare/downloads/2019-10-05/vxshare-hashes-052-v5.tar.xz,402.9MiB,caeeaed02140349e81ef2fb69472f4b3,2019-10-05 (FINAL),00360 - 00369,-
https://a4lg.com/downloads/vxshare/downloads/2020-05-18/vxshare-hashes-053-v5.tar.xz,405.8MiB,968b5c32e0a974238153b8ca8ce7cff3,2020-05-18 (FINAL),00370 - 00379,-
https://a4lg.com/downloads/vxshare/downloads/2020-09-28/vxshare-hashes-054-v5.tar.xz,405.9MiB,cae1281c9d598eee9e75949badb837ab,2020-09-28 (FINAL),00380 - 00389,-
https://a4lg.com/downloads/vxshare/downloads/2020-12-03/vxshare-hashes-055-v5.tar.xz,404.7MiB,01116cc5a51ecca4162f04450688d717,2020-12-03 (FINAL),00390 - 00399,-
https://a4lg.com/downloads/vxshare/downloads/2022-02-25/vxshare-hashes-056-v5.tar.xz,403.8MiB,22ebb7f91c17081522d9f9aaa0976120,2022-02-25 (FINAL),00400 - 00409,-
https://a4lg.com/downloads/vxshare/downloads/2022-05-07/vxshare-hashes-057-v5.tar.xz,408.1MiB,4499d0a8f605d0316bc6a60ca1e1b819,2022-05-07 (FINAL),00410 - 00419,-
https://a4lg.com/downloads/vxshare/downloads/2022-07-15/vxshare-hashes-058-v5.tar.xz,404.9MiB,713f89077ddc2283a83819b90e45a8d6,2022-07-15 (FINAL),00420 - 00429,Latest archive including hashes from VirusShare_00426.zip through VirusShare_00429.zip
